cpu_tb.vcd
$date
	Thu Feb 17 14:26:35 2022
$end
$version
	ModelSim Version 10.5b
$end
$timescale
	1ps
$end

$scope module CPU_tb $end
$var reg 1 ! CLK $end
$var reg 1 " RESET $end

$scope module dut $end
$var wire 1 # ACLK $end
$var wire 1 $ ARESETN $end
$var reg 1 % M_AXI_AWID $end
$var reg 32 & M_AXI_AWADDR [31:0] $end
$var reg 8 ' M_AXI_AWLEN [7:0] $end
$var reg 3 ( M_AXI_AWSIZE [2:0] $end
$var reg 3 ) M_AXI_AWBURST [2:0] $end
$var reg 1 * M_AXI_AWLOCK $end
$var reg 4 + M_AXI_AWCACHE [3:0] $end
$var reg 3 , M_AXI_AWPROT [2:0] $end
$var reg 4 - M_AXI_AWQOS [3:0] $end
$var reg 1 . M_AXI_AWUSER $end
$var reg 1 / M_AXI_AWVALID $end
$var wire 1 0 M_AXI_AWREADY $end
$var reg 32 1 M_AXI_WDATA [31:0] $end
$var reg 4 2 M_AXI_WRSTB [3:0] $end
$var reg 1 3 M_AXI_WLAST $end
$var reg 1 4 M_AXI_WVALID $end
$var wire 1 5 M_AXI_WREADY $end
$var wire 1 6 DATA_I [31] $end
$var wire 1 7 DATA_I [30] $end
$var wire 1 8 DATA_I [29] $end
$var wire 1 9 DATA_I [28] $end
$var wire 1 : DATA_I [27] $end
$var wire 1 ; DATA_I [26] $end
$var wire 1 < DATA_I [25] $end
$var wire 1 = DATA_I [24] $end
$var wire 1 > DATA_I [23] $end
$var wire 1 ? DATA_I [22] $end
$var wire 1 @ DATA_I [21] $end
$var wire 1 A DATA_I [20] $end
$var wire 1 B DATA_I [19] $end
$var wire 1 C DATA_I [18] $end
$var wire 1 D DATA_I [17] $end
$var wire 1 E DATA_I [16] $end
$var wire 1 F DATA_I [15] $end
$var wire 1 G DATA_I [14] $end
$var wire 1 H DATA_I [13] $end
$var wire 1 I DATA_I [12] $end
$var wire 1 J DATA_I [11] $end
$var wire 1 K DATA_I [10] $end
$var wire 1 L DATA_I [9] $end
$var wire 1 M DATA_I [8] $end
$var wire 1 N DATA_I [7] $end
$var wire 1 O DATA_I [6] $end
$var wire 1 P DATA_I [5] $end
$var wire 1 Q DATA_I [4] $end
$var wire 1 R DATA_I [3] $end
$var wire 1 S DATA_I [2] $end
$var wire 1 T DATA_I [1] $end
$var wire 1 U DATA_I [0] $end
$var reg 32 V DATA_O [31:0] $end
$var reg 1 W WE_O $end
$var reg 1 X SEL_O $end
$var reg 1 Y STB_O $end
$var wire 1 Z ACK_I $end
$var reg 1 [ SYS_O $end
$var reg 32 \ instruction1 [31:0] $end
$var reg 32 ] instruction2 [31:0] $end
$var reg 32 ^ program_counter1 [31:0] $end
$var reg 32 _ program_counter2 [31:0] $end
$var reg 32 ` program_counter3 [31:0] $end
$var reg 32 a program_counter4 [31:0] $end
$var reg 32 b program_counter5 [31:0] $end
$var reg 7 c opcode [6:0] $end
$var reg 5 d rs1 [4:0] $end
$var reg 5 e rs2 [4:0] $end
$var reg 5 f rd2 [4:0] $end
$var reg 5 g rd3 [4:0] $end
$var reg 5 h rd4 [4:0] $end
$var reg 5 i rd5 [4:0] $end
$var reg 3 j func3 [2:0] $end
$var reg 7 k func7 [6:0] $end
$var reg 12 l immI12 [11:0] $end
$var reg 12 m immS12 [11:0] $end
$var reg 13 n immB13 [12:0] $end
$var reg 20 o immU20 [19:0] $end
$var reg 20 p immJ20 [19:0] $end
$var reg 32 q immI32 [31:0] $end
$var reg 32 r immS32 [31:0] $end
$var reg 32 s immB32 [31:0] $end
$var reg 32 t immU32 [31:0] $end
$var reg 32 u immJ32 [31:0] $end
$var reg 32 v busA2 [31:0] $end
$var reg 32 w busB2 [31:0] $end
$var reg 32 x busB3 [31:0] $end
$var reg 32 y busB4 [31:0] $end
$var reg 32 z busW5 [31:0] $end
$var reg 1 { regWrite2 $end
$var reg 1 | regWrite3 $end
$var reg 1 } regWrite4 $end
$var reg 1 ~ regWrite5 $end
$var reg 5 !! aluOP2 [4:0] $end
$var reg 2 "! portBSrc [1:0] $end
$var reg 2 #! memNoBytes2 [1:0] $end
$var reg 2 $! memNoBytes3 [1:0] $end
$var reg 2 %! memNoBytes4 [1:0] $end
$var reg 1 &! memRead2 $end
$var reg 1 '! memRead3 $end
$var reg 1 (! memRead4 $end
$var reg 1 )! memWrite2 $end
$var reg 1 *! memWrite3 $end
$var reg 1 +! memWrite4 $end
$var reg 1 ,! auipc2 $end
$var reg 1 -! jal2 $end
$var reg 1 .! jalr2 $end
$var reg 1 /! branch2 $end
$var reg 2 0! forwardA [1:0] $end
$var reg 2 1! forwardB [1:0] $end
$var reg 1 2! stall $end
$var reg 32 3! portA2 [31:0] $end
$var reg 32 4! portA3 [31:0] $end
$var reg 32 5! portB2 [31:0] $end
$var reg 32 6! portB3 [31:0] $end
$var reg 32 7! aluResult3 [31:0] $end
$var reg 32 8! aluResult4 [31:0] $end
$var reg 5 9! aluOP3 [4:0] $end
$var reg 32 :! memResult4 [31:0] $end
$var reg 2 ;! busWSel2 [1:0] $end
$var reg 2 <! busWSel3 [1:0] $end
$var reg 2 =! busWSel4 [1:0] $end

$scope module im $end
$var parameter 32 >! IMSIZE $end
$var parameter 96 ?! INIT_F $end
$var wire 1 # clk $end
$var wire 1 @! address [31] $end
$var wire 1 A! address [30] $end
$var wire 1 B! address [29] $end
$var wire 1 C! address [28] $end
$var wire 1 D! address [27] $end
$var wire 1 E! address [26] $end
$var wire 1 F! address [25] $end
$var wire 1 G! address [24] $end
$var wire 1 H! address [23] $end
$var wire 1 I! address [22] $end
$var wire 1 J! address [21] $end
$var wire 1 K! address [20] $end
$var wire 1 L! address [19] $end
$var wire 1 M! address [18] $end
$var wire 1 N! address [17] $end
$var wire 1 O! address [16] $end
$var wire 1 P! address [15] $end
$var wire 1 Q! address [14] $end
$var wire 1 R! address [13] $end
$var wire 1 S! address [12] $end
$var wire 1 T! address [11] $end
$var wire 1 U! address [10] $end
$var wire 1 V! address [9] $end
$var wire 1 W! address [8] $end
$var wire 1 X! address [7] $end
$var wire 1 Y! address [6] $end
$var wire 1 Z! address [5] $end
$var wire 1 [! address [4] $end
$var wire 1 \! address [3] $end
$var wire 1 ]! address [2] $end
$var wire 1 ^! address [1] $end
$var wire 1 _! address [0] $end
$var reg 32 `! instruction [31:0] $end
$upscope $end

$scope module rf $end
$var parameter 32 a! REG_WIDTH $end
$var parameter 32 b! REG_COUNT $end
$var wire 1 # clk $end
$var wire 1 c! reset $end
$var wire 1 d! rs1 [4] $end
$var wire 1 e! rs1 [3] $end
$var wire 1 f! rs1 [2] $end
$var wire 1 g! rs1 [1] $end
$var wire 1 h! rs1 [0] $end
$var wire 1 i! rs2 [4] $end
$var wire 1 j! rs2 [3] $end
$var wire 1 k! rs2 [2] $end
$var wire 1 l! rs2 [1] $end
$var wire 1 m! rs2 [0] $end
$var wire 1 n! rd [4] $end
$var wire 1 o! rd [3] $end
$var wire 1 p! rd [2] $end
$var wire 1 q! rd [1] $end
$var wire 1 r! rd [0] $end
$var wire 1 s! RegWrite $end
$var wire 1 t! BusW [31] $end
$var wire 1 u! BusW [30] $end
$var wire 1 v! BusW [29] $end
$var wire 1 w! BusW [28] $end
$var wire 1 x! BusW [27] $end
$var wire 1 y! BusW [26] $end
$var wire 1 z! BusW [25] $end
$var wire 1 {! BusW [24] $end
$var wire 1 |! BusW [23] $end
$var wire 1 }! BusW [22] $end
$var wire 1 ~! BusW [21] $end
$var wire 1 !" BusW [20] $end
$var wire 1 "" BusW [19] $end
$var wire 1 #" BusW [18] $end
$var wire 1 $" BusW [17] $end
$var wire 1 %" BusW [16] $end
$var wire 1 &" BusW [15] $end
$var wire 1 '" BusW [14] $end
$var wire 1 (" BusW [13] $end
$var wire 1 )" BusW [12] $end
$var wire 1 *" BusW [11] $end
$var wire 1 +" BusW [10] $end
$var wire 1 ," BusW [9] $end
$var wire 1 -" BusW [8] $end
$var wire 1 ." BusW [7] $end
$var wire 1 /" BusW [6] $end
$var wire 1 0" BusW [5] $end
$var wire 1 1" BusW [4] $end
$var wire 1 2" BusW [3] $end
$var wire 1 3" BusW [2] $end
$var wire 1 4" BusW [1] $end
$var wire 1 5" BusW [0] $end
$var reg 32 6" BusA [31:0] $end
$var reg 32 7" BusB [31:0] $end
$var integer 32 8" i $end
$upscope $end

$scope module cu $end
$var wire 1 9" opcode [6] $end
$var wire 1 :" opcode [5] $end
$var wire 1 ;" opcode [4] $end
$var wire 1 <" opcode [3] $end
$var wire 1 =" opcode [2] $end
$var wire 1 >" opcode [1] $end
$var wire 1 ?" opcode [0] $end
$var wire 1 @" func3 [2] $end
$var wire 1 A" func3 [1] $end
$var wire 1 B" func3 [0] $end
$var wire 1 C" func7 [6] $end
$var wire 1 D" func7 [5] $end
$var wire 1 E" func7 [4] $end
$var wire 1 F" func7 [3] $end
$var wire 1 G" func7 [2] $end
$var wire 1 H" func7 [1] $end
$var wire 1 I" func7 [0] $end
$var wire 1 J" portA [31] $end
$var wire 1 K" portA [30] $end
$var wire 1 L" portA [29] $end
$var wire 1 M" portA [28] $end
$var wire 1 N" portA [27] $end
$var wire 1 O" portA [26] $end
$var wire 1 P" portA [25] $end
$var wire 1 Q" portA [24] $end
$var wire 1 R" portA [23] $end
$var wire 1 S" portA [22] $end
$var wire 1 T" portA [21] $end
$var wire 1 U" portA [20] $end
$var wire 1 V" portA [19] $end
$var wire 1 W" portA [18] $end
$var wire 1 X" portA [17] $end
$var wire 1 Y" portA [16] $end
$var wire 1 Z" portA [15] $end
$var wire 1 [" portA [14] $end
$var wire 1 \" portA [13] $end
$var wire 1 ]" portA [12] $end
$var wire 1 ^" portA [11] $end
$var wire 1 _" portA [10] $end
$var wire 1 `" portA [9] $end
$var wire 1 a" portA [8] $end
$var wire 1 b" portA [7] $end
$var wire 1 c" portA [6] $end
$var wire 1 d" portA [5] $end
$var wire 1 e" portA [4] $end
$var wire 1 f" portA [3] $end
$var wire 1 g" portA [2] $end
$var wire 1 h" portA [1] $end
$var wire 1 i" portA [0] $end
$var wire 1 j" portB [31] $end
$var wire 1 k" portB [30] $end
$var wire 1 l" portB [29] $end
$var wire 1 m" portB [28] $end
$var wire 1 n" portB [27] $end
$var wire 1 o" portB [26] $end
$var wire 1 p" portB [25] $end
$var wire 1 q" portB [24] $end
$var wire 1 r" portB [23] $end
$var wire 1 s" portB [22] $end
$var wire 1 t" portB [21] $end
$var wire 1 u" portB [20] $end
$var wire 1 v" portB [19] $end
$var wire 1 w" portB [18] $end
$var wire 1 x" portB [17] $end
$var wire 1 y" portB [16] $end
$var wire 1 z" portB [15] $end
$var wire 1 {" portB [14] $end
$var wire 1 |" portB [13] $end
$var wire 1 }" portB [12] $end
$var wire 1 ~" portB [11] $end
$var wire 1 !# portB [10] $end
$var wire 1 "# portB [9] $end
$var wire 1 ## portB [8] $end
$var wire 1 $# portB [7] $end
$var wire 1 %# portB [6] $end
$var wire 1 &# portB [5] $end
$var wire 1 '# portB [4] $end
$var wire 1 (# portB [3] $end
$var wire 1 )# portB [2] $end
$var wire 1 *# portB [1] $end
$var wire 1 +# portB [0] $end
$var reg 1 ,# RegWrite $end
$var reg 2 -# portBSrc [1:0] $end
$var reg 5 .# aluop [4:0] $end
$var reg 1 /# memRead $end
$var reg 1 0# memWrite $end
$var reg 2 1# memNoBytes [1:0] $end
$var reg 2 2# busWSel [1:0] $end
$var reg 1 3# auipc $end
$var reg 1 4# jal $end
$var reg 1 5# jalr $end
$var reg 1 6# branch $end
$upscope $end

$scope module fw $end
$var wire 1 7# rs1 [4] $end
$var wire 1 8# rs1 [3] $end
$var wire 1 9# rs1 [2] $end
$var wire 1 :# rs1 [1] $end
$var wire 1 ;# rs1 [0] $end
$var wire 1 <# rs2 [4] $end
$var wire 1 =# rs2 [3] $end
$var wire 1 ># rs2 [2] $end
$var wire 1 ?# rs2 [1] $end
$var wire 1 @# rs2 [0] $end
$var wire 1 A# rd3 [4] $end
$var wire 1 B# rd3 [3] $end
$var wire 1 C# rd3 [2] $end
$var wire 1 D# rd3 [1] $end
$var wire 1 E# rd3 [0] $end
$var wire 1 F# rd4 [4] $end
$var wire 1 G# rd4 [3] $end
$var wire 1 H# rd4 [2] $end
$var wire 1 I# rd4 [1] $end
$var wire 1 J# rd4 [0] $end
$var wire 1 K# rd5 [4] $end
$var wire 1 L# rd5 [3] $end
$var wire 1 M# rd5 [2] $end
$var wire 1 N# rd5 [1] $end
$var wire 1 O# rd5 [0] $end
$var wire 1 P# regWrite3 $end
$var wire 1 Q# regWrite4 $end
$var wire 1 R# regWrite5 $end
$var wire 1 S# memRead3 $end
$var reg 2 T# forwardA [1:0] $end
$var reg 2 U# forwardB [1:0] $end
$var reg 1 V# stall $end
$upscope $end

$scope module alu $end
$var wire 1 W# A [31] $end
$var wire 1 X# A [30] $end
$var wire 1 Y# A [29] $end
$var wire 1 Z# A [28] $end
$var wire 1 [# A [27] $end
$var wire 1 \# A [26] $end
$var wire 1 ]# A [25] $end
$var wire 1 ^# A [24] $end
$var wire 1 _# A [23] $end
$var wire 1 `# A [22] $end
$var wire 1 a# A [21] $end
$var wire 1 b# A [20] $end
$var wire 1 c# A [19] $end
$var wire 1 d# A [18] $end
$var wire 1 e# A [17] $end
$var wire 1 f# A [16] $end
$var wire 1 g# A [15] $end
$var wire 1 h# A [14] $end
$var wire 1 i# A [13] $end
$var wire 1 j# A [12] $end
$var wire 1 k# A [11] $end
$var wire 1 l# A [10] $end
$var wire 1 m# A [9] $end
$var wire 1 n# A [8] $end
$var wire 1 o# A [7] $end
$var wire 1 p# A [6] $end
$var wire 1 q# A [5] $end
$var wire 1 r# A [4] $end
$var wire 1 s# A [3] $end
$var wire 1 t# A [2] $end
$var wire 1 u# A [1] $end
$var wire 1 v# A [0] $end
$var wire 1 w# B [31] $end
$var wire 1 x# B [30] $end
$var wire 1 y# B [29] $end
$var wire 1 z# B [28] $end
$var wire 1 {# B [27] $end
$var wire 1 |# B [26] $end
$var wire 1 }# B [25] $end
$var wire 1 ~# B [24] $end
$var wire 1 !$ B [23] $end
$var wire 1 "$ B [22] $end
$var wire 1 #$ B [21] $end
$var wire 1 $$ B [20] $end
$var wire 1 %$ B [19] $end
$var wire 1 &$ B [18] $end
$var wire 1 '$ B [17] $end
$var wire 1 ($ B [16] $end
$var wire 1 )$ B [15] $end
$var wire 1 *$ B [14] $end
$var wire 1 +$ B [13] $end
$var wire 1 ,$ B [12] $end
$var wire 1 -$ B [11] $end
$var wire 1 .$ B [10] $end
$var wire 1 /$ B [9] $end
$var wire 1 0$ B [8] $end
$var wire 1 1$ B [7] $end
$var wire 1 2$ B [6] $end
$var wire 1 3$ B [5] $end
$var wire 1 4$ B [4] $end
$var wire 1 5$ B [3] $end
$var wire 1 6$ B [2] $end
$var wire 1 7$ B [1] $end
$var wire 1 8$ B [0] $end
$var wire 1 9$ aluop [4] $end
$var wire 1 :$ aluop [3] $end
$var wire 1 ;$ aluop [2] $end
$var wire 1 <$ aluop [1] $end
$var wire 1 =$ aluop [0] $end
$var reg 32 >$ ALUResult [31:0] $end
$var reg 64 ?$ multiplication_signed [63:0] $end
$var reg 64 @$ multiplication_unsigned [63:0] $end
$var reg 64 A$ multiplication_signed_unsigned [63:0] $end
$var reg 32 B$ division_signed [31:0] $end
$var reg 32 C$ division_unsigned [31:0] $end
$var reg 32 D$ remainder_signed [31:0] $end
$var reg 32 E$ remainder_unsigned [31:0] $end
$upscope $end
$upscope $end
$upscope $end
$enddefinitions $end
#0
$dumpvars
0!
1"
x%
bx &
bx '
bx (
bx )
x*
bx +
bx ,
bx -
x.
x/
bx 1
bx 2
x3
x4
bx V
xW
xX
xY
x[
bx \
bx ]
bx ^
bx _
bx `
bx a
bx b
bx c
bx d
bx e
bx f
bx g
bx h
bx i
bx j
bx k
bx l
bx m
bx0 n
bx o
bx0 p
bx q
bx r
bx0 s
bx000000000000 t
bx0 u
bx v
bx w
bx x
bx y
bx z
0{
x|
x}
x~
b0 !!
b0 "!
b0 #!
bx $!
bx %!
0&!
x'!
x(!
0)!
x*!
x+!
0,!
0-!
0.!
0/!
b0 0!
b0 1!
02!
bx 3!
bx 4!
bx 5!
bx 6!
b0 7!
bx 8!
bx 9!
b0 :!
b0 ;!
bx <!
bx =!
bx `!
bx 6"
bx 7"
0,#
b0 -#
b0 .#
0/#
00#
b0 1#
b0 2#
03#
04#
05#
06#
b0 T#
b0 U#
0V#
b0 >$
bx ?$
bx @$
bx A$
bx B$
bx C$
bx D$
bx E$
b10000000000000 >!
b100000 a!
b100000 b!
b1011100010111101110010011101000110110000101111011010010110110100101110011010000110010101111000 ?!
b0 8"
0#
1$
z0
z5
zU
zT
zS
zR
zQ
zP
zO
zN
zM
zL
zK
zJ
zI
zH
zG
zF
zE
zD
zC
zB
zA
z@
z?
z>
z=
z<
z;
z:
z9
z8
z7
z6
zZ
0c!
x_!
x^!
x]!
x\!
x[!
xZ!
xY!
xX!
xW!
xV!
xU!
xT!
xS!
xR!
xQ!
xP!
xO!
xN!
xM!
xL!
xK!
xJ!
xI!
xH!
xG!
xF!
xE!
xD!
xC!
xB!
xA!
x@!
xh!
xg!
xf!
xe!
xd!
xm!
xl!
xk!
xj!
xi!
xr!
xq!
xp!
xo!
xn!
xs!
x5"
x4"
x3"
x2"
x1"
x0"
x/"
x."
x-"
x,"
x+"
x*"
x)"
x("
x'"
x&"
x%"
x$"
x#"
x""
x!"
x~!
x}!
x|!
x{!
xz!
xy!
xx!
xw!
xv!
xu!
xt!
x?"
x>"
x="
x<"
x;"
x:"
x9"
xB"
xA"
x@"
xI"
xH"
xG"
xF"
xE"
xD"
xC"
xi"
xh"
xg"
xf"
xe"
xd"
xc"
xb"
xa"
x`"
x_"
x^"
x]"
x\"
x["
xZ"
xY"
xX"
xW"
xV"
xU"
xT"
xS"
xR"
xQ"
xP"
xO"
xN"
xM"
xL"
xK"
xJ"
x+#
x*#
x)#
x(#
x'#
x&#
x%#
x$#
x##
x"#
x!#
x~"
x}"
x|"
x{"
xz"
xy"
xx"
xw"
xv"
xu"
xt"
xs"
xr"
xq"
xp"
xo"
xn"
xm"
xl"
xk"
xj"
x;#
x:#
x9#
x8#
x7#
x@#
x?#
x>#
x=#
x<#
xE#
xD#
xC#
xB#
xA#
xJ#
xI#
xH#
xG#
xF#
xO#
xN#
xM#
xL#
xK#
xP#
xQ#
xR#
xS#
xv#
xu#
xt#
xs#
xr#
xq#
xp#
xo#
xn#
xm#
xl#
xk#
xj#
xi#
xh#
xg#
xf#
xe#
xd#
xc#
xb#
xa#
x`#
x_#
x^#
x]#
x\#
x[#
xZ#
xY#
xX#
xW#
x8$
x7$
x6$
x5$
x4$
x3$
x2$
x1$
x0$
x/$
x.$
x-$
x,$
x+$
x*$
x)$
x($
x'$
x&$
x%$
x$$
x#$
x"$
x!$
x~#
x}#
x|#
x{#
xz#
xy#
xx#
xw#
x=$
x<$
x;$
x:$
x9$
$end
#5
1!
1#
0|
0'!
0*!
b0 9!
b0 $!
b0 <!
b0 8!
b0 z
05"
04"
03"
02"
01"
00"
0/"
0."
0-"
0,"
0+"
0*"
0)"
0("
0'"
0&"
0%"
0$"
0#"
0""
0!"
0~!
0}!
0|!
0{!
0z!
0y!
0x!
0w!
0v!
0u!
0t!
0P#
0S#
0=$
0<$
0;$
0:$
09$
bx >$
bx 7!
#10
0!
0#
0"
0$
1c!
b1 8"
b10 8"
b11 8"
b100 8"
b101 8"
b110 8"
b111 8"
b1000 8"
b1001 8"
b1010 8"
b1011 8"
b1100 8"
b1101 8"
b1110 8"
b1111 8"
b10000 8"
b10001 8"
b10010 8"
b10011 8"
b10100 8"
b10101 8"
b10110 8"
b10111 8"
b11000 8"
b11001 8"
b11010 8"
b11011 8"
b11100 8"
b11101 8"
b11110 8"
b11111 8"
b100000 8"
b0 ]
0}
0~
b0 g
b0 h
b0 i
0(!
0+!
b0 x
b0 y
b0 4!
b0 6!
b0 %!
b0 =!
b0 _
b0 `
b0 a
b0 b
b0 ^
b0 c
b0 f
b0 d
b0 e
b0 k
b0 l
b0 m
b0 n
b0 o
b0 p
b0 j
0s!
0r!
0q!
0p!
0o!
0n!
b0 u
b0 t
b0 s
b0 r
b0 q
0Q#
0R#
0B"
0A"
0@"
0I"
0H"
0G"
0F"
0E"
0D"
0C"
0m!
0l!
0k!
0j!
0i!
0@#
0?#
0>#
0=#
0<#
0h!
0g!
0f!
0e!
0d!
0;#
0:#
09#
08#
07#
0?"
0>"
0="
0<"
0;"
0:"
09"
0_!
0^!
0]!
0\!
0[!
0Z!
0Y!
0X!
0W!
0V!
0U!
0T!
0S!
0R!
0Q!
0P!
0O!
0N!
0M!
0L!
0K!
0J!
0I!
0H!
0G!
0F!
0E!
0D!
0C!
0B!
0A!
0@!
08$
07$
06$
05$
04$
03$
02$
01$
00$
0/$
0.$
0-$
0,$
0+$
0*$
0)$
0($
0'$
0&$
0%$
0$$
0#$
0"$
0!$
0~#
0}#
0|#
0{#
0z#
0y#
0x#
0w#
0v#
0u#
0t#
0s#
0r#
0q#
0p#
0o#
0n#
0m#
0l#
0k#
0j#
0i#
0h#
0g#
0f#
0e#
0d#
0c#
0b#
0a#
0`#
0_#
0^#
0]#
0\#
0[#
0Z#
0Y#
0X#
0W#
0O#
0N#
0M#
0L#
0K#
0J#
0I#
0H#
0G#
0F#
0E#
0D#
0C#
0B#
0A#
b0 ?$
b0 @$
b0 A$
b0 >$
b10100000000000010010011 `!
b0 6"
b0 7"
b0 w
b0 v
b10100000000000010010011 \
b0 7!
b0 3!
b0 5!
0+#
0*#
0)#
0(#
0'#
0&#
0%#
0$#
0##
0"#
0!#
0~"
0}"
0|"
0{"
0z"
0y"
0x"
0w"
0v"
0u"
0t"
0s"
0r"
0q"
0p"
0o"
0n"
0m"
0l"
0k"
0j"
0i"
0h"
0g"
0f"
0e"
0d"
0c"
0b"
0a"
0`"
0_"
0^"
0]"
0\"
0["
0Z"
0Y"
0X"
0W"
0V"
0U"
0T"
0S"
0R"
0Q"
0P"
0O"
0N"
0M"
0L"
0K"
0J"
#15
1!
1#
b0 8"
b1 8"
b10 8"
b11 8"
b100 8"
b101 8"
b110 8"
b111 8"
b1000 8"
b1001 8"
b1010 8"
b1011 8"
b1100 8"
b1101 8"
b1110 8"
b1111 8"
b10000 8"
b10001 8"
b10010 8"
b10011 8"
b10100 8"
b10101 8"
b10110 8"
b10111 8"
b11000 8"
b11001 8"
b11010 8"
b11011 8"
b11100 8"
b11101 8"
b11110 8"
b11111 8"
b100000 8"
#20
0!
0#
#25
1!
1#
b0 8"
b1 8"
b10 8"
b11 8"
b100 8"
b101 8"
b110 8"
b111 8"
b1000 8"
b1001 8"
b1010 8"
b1011 8"
b1100 8"
b1101 8"
b1110 8"
b1111 8"
b10000 8"
b10001 8"
b10010 8"
b10011 8"
b10100 8"
b10101 8"
b10110 8"
b10111 8"
b11000 8"
b11001 8"
b11010 8"
b11011 8"
b11100 8"
b11101 8"
b11110 8"
b11111 8"
b100000 8"
#30
0!
0#
#35
1!
1#
b0 8"
b1 8"
b10 8"
b11 8"
b100 8"
b101 8"
b110 8"
b111 8"
b1000 8"
b1001 8"
b1010 8"
b1011 8"
b1100 8"
b1101 8"
b1110 8"
b1111 8"
b10000 8"
b10001 8"
b10010 8"
b10011 8"
b10100 8"
b10101 8"
b10110 8"
b10111 8"
b11000 8"
b11001 8"
b11010 8"
b11011 8"
b11100 8"
b11101 8"
b11110 8"
b11111 8"
b100000 8"
#40
0!
0#
#45
1!
1#
b0 8"
b1 8"
b10 8"
b11 8"
b100 8"
b101 8"
b110 8"
b111 8"
b1000 8"
b1001 8"
b1010 8"
b1011 8"
b1100 8"
b1101 8"
b1110 8"
b1111 8"
b10000 8"
b10001 8"
b10010 8"
b10011 8"
b10100 8"
b10101 8"
b10110 8"
b10111 8"
b11000 8"
b11001 8"
b11010 8"
b11011 8"
b11100 8"
b11101 8"
b11110 8"
b11111 8"
b100000 8"
#50
0!
0#
#55
1!
1#
b0 8"
b1 8"
b10 8"
b11 8"
b100 8"
b101 8"
b110 8"
b111 8"
b1000 8"
b1001 8"
b1010 8"
b1011 8"
b1100 8"
b1101 8"
b1110 8"
b1111 8"
b10000 8"
b10001 8"
b10010 8"
b10011 8"
b10100 8"
b10101 8"
b10110 8"
b10111 8"
b11000 8"
b11001 8"
b11010 8"
b11011 8"
b11100 8"
b11101 8"
b11110 8"
b11111 8"
b100000 8"
#60
0!
0#
#65
1!
1#
b0 8"
b1 8"
b10 8"
b11 8"
b100 8"
b101 8"
b110 8"
b111 8"
b1000 8"
b1001 8"
b1010 8"
b1011 8"
b1100 8"
b1101 8"
b1110 8"
b1111 8"
b10000 8"
b10001 8"
b10010 8"
b10011 8"
b10100 8"
b10101 8"
b10110 8"
b10111 8"
b11000 8"
b11001 8"
b11010 8"
b11011 8"
b11100 8"
b11101 8"
b11110 8"
b11111 8"
b100000 8"
#70
0!
0#
#75
1!
1#
b0 8"
b1 8"
b10 8"
b11 8"
b100 8"
b101 8"
b110 8"
b111 8"
b1000 8"
b1001 8"
b1010 8"
b1011 8"
b1100 8"
b1101 8"
b1110 8"
b1111 8"
b10000 8"
b10001 8"
b10010 8"
b10011 8"
b10100 8"
b10101 8"
b10110 8"
b10111 8"
b11000 8"
b11001 8"
b11010 8"
b11011 8"
b11100 8"
b11101 8"
b11110 8"
b11111 8"
b100000 8"
#80
0!
0#
#85
1!
1#
b0 8"
b1 8"
b10 8"
b11 8"
b100 8"
b101 8"
b110 8"
b111 8"
b1000 8"
b1001 8"
b1010 8"
b1011 8"
b1100 8"
b1101 8"
b1110 8"
b1111 8"
b10000 8"
b10001 8"
b10010 8"
b10011 8"
b10100 8"
b10101 8"
b10110 8"
b10111 8"
b11000 8"
b11001 8"
b11010 8"
b11011 8"
b11100 8"
b11101 8"
b11110 8"
b11111 8"
b100000 8"
#90
0!
0#
#95
1!
1#
b0 8"
b1 8"
b10 8"
b11 8"
b100 8"
b101 8"
b110 8"
b111 8"
b1000 8"
b1001 8"
b1010 8"
b1011 8"
b1100 8"
b1101 8"
b1110 8"
b1111 8"
b10000 8"
b10001 8"
b10010 8"
b10011 8"
b10100 8"
b10101 8"
b10110 8"
b10111 8"
b11000 8"
b11001 8"
b11010 8"
b11011 8"
b11100 8"
b11101 8"
b11110 8"
b11111 8"
b100000 8"
#100
0!
0#
#105
1!
1#
b0 8"
b1 8"
b10 8"
b11 8"
b100 8"
b101 8"
b110 8"
b111 8"
b1000 8"
b1001 8"
b1010 8"
b1011 8"
b1100 8"
b1101 8"
b1110 8"
b1111 8"
b10000 8"
b10001 8"
b10010 8"
b10011 8"
b10100 8"
b10101 8"
b10110 8"
b10111 8"
b11000 8"
b11001 8"
b11010 8"
b11011 8"
b11100 8"
b11101 8"
b11110 8"
b11111 8"
b100000 8"
#110
0!
0#
1"
1$
0c!
#115
1!
1#
b10100000000000010010011 ]
b100 ^
b10011 c
b1 f
b101 e
b101 l
b1 m
b100000000000 n
b10100000000 o
b100000000100 p
b11111111111100000000100000000100 u
b10100000000000000000000 t
b11111111111111111110100000000000 s
b1 r
b101 q
1m!
1k!
1@#
1>#
1?"
1>"
1;"
1]!
b101000001000000100010011 `!
b1 -#
1,#
1{
b1 "!
b101000001000000100010011 \
b101 5!
1+#
1)#
0,#
b0 -#
b1 -#
1,#
#120
0!
0#
#125
1!
1#
b101000001000000100010011 ]
1|
b1 g
b101 6!
b100 _
b1000 ^
b10 f
b1 d
b1010 e
b1010 l
b10 m
b10 n
b101000001000 o
b1000000000001010 p
b1000000000001010 u
b101000001000000000000000 t
b10 s
b10 r
b1010 q
1P#
0m!
1l!
0k!
1j!
0@#
1?#
0>#
1=#
1h!
1;#
0]!
1\!
18$
16$
1E#
b0 B$
b0 C$
b0 D$
b0 E$
b101 >$
b1000001000000110110011 `!
b1 T#
b1010 5!
b1 0!
b1000001000000110110011 \
b101 7!
0+#
1*#
0)#
1(#
0,#
b0 -#
b1 -#
1,#
b101 3!
1i"
1g"
0,#
b0 -#
b1 -#
1,#
#130
0!
0#
#135
1!
1#
b1000001000000110110011 ]
1}
b10 g
b1 h
b101 4!
b1010 6!
b101 8!
b1000 _
b100 `
b1100 ^
b110011 c
b11 f
b10 e
b10 l
b11 m
b100000000010 n
b1000001000 o
b1000000000000010 p
b1000000000000010 u
b1000001000000000000000 t
b11111111111111111110100000000010 s
b11 r
b10 q
1Q#
0j!
0=#
1:"
1]!
08$
17$
06$
15$
1v#
1t#
1J#
0E#
1D#
b110010 ?$
b110010 @$
b110010 A$
b101 D$
b101 E$
b1111 >$
b10010001000110011001000110111 `!
0,#
b0 -#
1,#
b10 T#
b1 U#
b10 5!
b101 :!
b1 1!
b10 0!
b0 "!
b10010001000110011001000110111 \
b1111 7!
0(#
0,#
1,#
b1111 5!
1+#
1)#
1(#
0,#
1,#
#140
0!
0#
